1º Ano/2º Semestre/LSD/aula01/Parte2/simulation/qsim/VHDLDemo.msim.vcd
$comment
	File created using the following command:
		vcd file VHDLDemo.msim.vcd -direction
$end
$date
	Mon Feb 19 16:00:50 2024
$end
$version
	Questa Intel Starter FPGA Edition Version 2021.2
$end
$timescale
	1ps
$end

$scope module and2gate_vhd_vec_tst $end
$var wire 1 ! inPort0 $end
$var wire 1 " inPort1 $end
$var wire 1 # outPort $end

$scope module i1 $end
$var wire 1 $ gnd $end
$var wire 1 % vcc $end
$var wire 1 & unknown $end
$var wire 1 ' devoe $end
$var wire 1 ( devclrn $end
$var wire 1 ) devpor $end
$var wire 1 * ww_devoe $end
$var wire 1 + ww_devclrn $end
$var wire 1 , ww_devpor $end
$var wire 1 - ww_inPort0 $end
$var wire 1 . ww_inPort1 $end
$var wire 1 / ww_outPort $end
$var wire 1 0 \outPort~output_o\ $end
$var wire 1 1 \inPort0~input_o\ $end
$var wire 1 2 \inPort1~input_o\ $end
$var wire 1 3 \outPort~0_combout\ $end
$upscope $end
$upscope $end
$enddefinitions $end
#0
$dumpvars
0!
1"
0#
0$
1%
x&
1'
1(
1)
1*
1+
1,
0-
1.
0/
00
01
12
03
$end
#50000
1!
1-
11
13
10
1/
1#
#100000
0!
0-
01
03
00
0/
0#
#150000
0"
0.
02
#250000
1"
1!
1.
1-
11
12
13
10
1/
1#
#400000
0"
0!
0.
0-
01
02
03
00
0/
0#
#450000
1"
1.
12
#500000
1!
1-
11
13
10
1/
1#
#550000
0"
0.
02
03
00
0/
0#
#600000
0!
0-
01
#650000
1!
1"
1-
1.
12
11
13
10
1/
1#
#750000
0!
0-
01
03
00
0/
0#
#800000
1!
0"
1-
0.
02
11
#850000
0!
1"
0-
1.
12
01
#950000
1!
0"
1-
0.
02
11
