1º Ano/2º Semestre/LSD/Miniprojeto01/simulation/qsim/Projeto1.msim.vcd
$comment
	File created using the following command:
		vcd file Projeto1.msim.vcd -direction
$end
$date
	Mon Mar 11 16:44:10 2024
$end
$version
	Questa Intel Starter FPGA Edition Version 2021.2
$end
$timescale
	1ps
$end

$scope module projeto_vhd_vec_tst $end
$var wire 1 ! A0 $end
$var wire 1 " A1 $end
$var wire 1 # A2 $end
$var wire 1 $ A3 $end

$scope module i1 $end
$var wire 1 % devoe $end
$var wire 1 & ww_devoe $end
$var wire 1 ' ww_A0 $end
$var wire 1 ( ww_A1 $end
$var wire 1 ) ww_A2 $end
$var wire 1 * ww_A3 $end
$var wire 1 + \N0~output_o\ $end
$var wire 1 , \N1~output_o\ $end
$var wire 1 - \N2~output_o\ $end
$var wire 1 . \A0~input_o\ $end
$var wire 1 / \A3~input_o\ $end
$var wire 1 0 \A1~input_o\ $end
$var wire 1 1 \A2~input_o\ $end
$var wire 1 2 \b2v_inst1|S~combout\ $end
$var wire 1 3 \b2v_inst2|S~combout\ $end
$var wire 1 4 \b2v_inst2|Co~0_combout\ $end
$upscope $end
$upscope $end
$enddefinitions $end
#0
$dumpvars
0!
1"
0#
0$
1%
1&
0'
1(
0)
0*
1+
0,
0-
0.
0/
10
01
12
03
04
$end
#10000
1!
0"
1$
1'
0(
1*
1/
00
1.
02
13
1,
0+
#20000
0$
1#
0*
1)
11
0/
#30000
0!
0'
0.
12
03
0,
1+
#40000
1!
1$
0#
1"
1'
1*
0)
1(
10
01
1/
1.
13
1,
#60000
0$
1#
0"
0*
1)
0(
00
11
0/
02
0+
#70000
1$
1*
1/
12
1+
#80000
0#
0)
01
02
0+
#90000
1"
1(
10
12
1+
#100000
0!
0'
0.
02
0+
#110000
0"
0(
00
12
03
0,
1+
#120000
1"
1!
1#
1(
1'
1)
11
1.
10
02
14
1-
0+
#130000
0"
0!
0$
0(
0'
0*
0/
0.
00
12
04
0-
1+
#140000
1!
1$
0#
1'
1*
0)
01
1/
1.
02
13
1,
0+
#150000
0!
1"
0'
1(
10
0.
#160000
1!
0$
1'
0*
0/
1.
#170000
1#
1)
11
12
1+
#180000
0#
0!
0)
0'
0.
01
03
0,
#190000
1!
1$
0"
1'
1*
0(
00
1/
1.
02
13
1,
0+
#200000
0$
1"
0*
1(
10
0/
#210000
1#
1)
11
12
1+
#220000
1$
0!
1*
0'
0.
1/
#230000
1!
0"
1'
0(
00
1.
#240000
0$
0#
0*
0)
01
0/
03
0,
#250000
1$
0!
1"
1*
0'
1(
10
0.
1/
02
13
1,
0+
#260000
1!
0"
1#
1'
0(
1)
11
00
1.
12
1+
#270000
1"
0$
1(
0*
0/
10
#280000
1$
0!
1*
0'
0.
1/
#290000
0$
1!
0*
1'
1.
0/
#300000
0!
0"
0'
0(
00
0.
03
0,
#310000
1$
1*
1/
02
13
1,
0+
#320000
0$
1!
0#
0*
1'
0)
01
1.
0/
12
03
0,
1+
#330000
0!
1"
0'
1(
10
0.
#340000
1!
1#
1'
1)
11
1.
13
1,
#350000
0!
0'
0.
02
0+
#360000
0#
0"
0)
0(
00
01
03
0,
#370000
1!
1'
1.
12
1+
#380000
0!
1#
0'
1)
11
0.
#390000
1!
1'
1.
02
13
1,
0+
#400000
0#
1$
0)
1*
1/
01
#410000
1#
0$
1"
1)
0*
1(
10
0/
11
12
1+
#420000
0"
0!
0(
0'
0.
00
03
0,
#430000
0#
0)
01
02
0+
#440000
1!
1$
1'
1*
1/
1.
13
1,
#450000
0$
1#
1"
0*
1)
1(
10
11
0/
12
1+
#460000
1$
0"
1*
0(
00
1/
#470000
0$
1"
0*
1(
10
0/
#480000
0"
0#
0!
0(
0)
0'
0.
01
00
02
03
0,
0+
#490000
1"
1$
1(
1*
1/
10
13
1,
#500000
1#
1!
1)
1'
1.
11
03
14
1-
0,
#510000
0!
0"
0$
0'
0(
0*
0/
00
0.
12
04
0-
1+
#520000
1!
1"
1$
0#
1'
1(
1*
0)
01
1/
10
1.
13
1,
#530000
0$
0*
0/
02
0+
#540000
0!
0'
0.
12
03
0,
1+
#560000
1$
0"
1*
0(
00
1/
#570000
1"
1(
10
02
13
1,
0+
#580000
0"
0$
1!
0(
0*
1'
1.
0/
00
12
03
0,
1+
#590000
1$
1#
1*
1)
11
1/
13
1,
#600000
0#
0!
0)
0'
0.
01
03
0,
#610000
1#
1!
1)
1'
1.
11
13
1,
#620000
0#
1"
0)
1(
10
01
#630000
0!
0'
0.
02
0+
#640000
1!
1#
0$
1'
1)
0*
0/
11
1.
12
1+
#650000
0!
1$
0"
0'
1*
0(
00
1/
0.
02
0+
#660000
1!
1"
1'
1(
10
1.
03
14
1-
0,
#670000
0"
0$
0#
0(
0*
0)
01
0/
00
12
04
0-
1+
#680000
1"
1#
1(
1)
11
10
13
1,
#690000
0"
0!
0(
0'
0.
00
03
0,
#700000
1!
0#
1$
1'
0)
1*
1/
01
1.
02
13
1,
0+
#720000
0!
1#
0'
1)
11
0.
#730000
1!
1'
1.
12
1+
#740000
0!
0$
1"
0'
0*
1(
10
0/
0.
02
0+
#750000
0#
0)
01
12
03
0,
1+
#760000
0"
0(
00
02
0+
#770000
1"
1(
10
12
1+
#780000
1#
1!
1)
1'
1.
11
13
1,
#790000
0#
0)
01
02
0+
#800000
0"
1$
0(
1*
1/
00
#810000
1"
0$
0!
1(
0*
0'
0.
0/
10
12
03
0,
1+
#820000
0"
1#
0(
1)
11
00
#830000
0#
1!
0)
1'
1.
01
#840000
0!
1"
0'
1(
10
0.
#850000
0"
1$
0(
1*
1/
00
#860000
0$
1!
1#
0*
1'
1)
11
1.
0/
02
13
1,
0+
#870000
0!
0#
1"
0'
0)
1(
10
01
0.
12
03
0,
1+
#880000
1!
1'
1.
02
13
1,
0+
#890000
1#
1$
1)
1*
1/
11
03
14
1-
0,
#900000
0$
0!
0*
0'
0.
0/
13
04
0-
1,
#910000
1!
0#
0"
1'
0)
0(
00
01
1.
12
03
0,
1+
#920000
0!
1$
0'
1*
1/
0.
#930000
1!
0$
1'
0*
0/
1.
#940000
0!
1#
0'
1)
11
0.
#950000
0#
0)
01
02
0+
#960000
1!
1$
1"
1'
1*
1(
10
1/
1.
12
13
1,
1+
#970000
0!
0$
0"
0'
0*
0(
00
0/
0.
02
03
0,
0+
#980000
1!
1$
1'
1*
1/
1.
13
1,
#990000
1"
1#
1(
1)
11
10
03
14
1-
0,
